
<svg xmlns="http://www.w3.org/2000/svg" version="1.1" xmlns:xlink="http://www.w3.org/1999/xlink" preserveAspectRatio="none" x="0px" y="0px" width="300px" height="250px" viewBox="0 0 300 250">
<defs>
<g id="Layer1_0_FILL">
<path fill="#505F68" stroke="none" d="
M 187.65 224.4
Q 188.45 224.4 188.85 224.65
L 188.7 225.8 187.65 225.85
Q 186.4 225.85 185.75 226.15 185.05 226.55 184.85 227.5
L 184.8 228
Q 184.8 229.6 186.65 229.6 187.65 229.6 188.45 228.9 188.75 229.6 189.65 229.6 190.65 229.6 190.8 228.5
L 190.95 227.95 190.3 227.95
Q 189.95 227.95 189.95 227.65
L 189.95 227.5 190.65 223.7
Q 189.65 222.9 187.9 222.9 186.95 222.9 186.2 223.1
L 186.1 224.05 186.15 224.7
Q 186.8 224.4 187.65 224.4
M 188.45 226.85
L 188.25 228.05
Q 187.8 228.35 187.15 228.35 186.55 228.35 186.55 227.85
L 186.55 227.55
Q 186.7 226.9 187.45 226.9
L 188.45 226.85
M 196.5 223
L 194.3 227.6 194.2 227.6 193.8 223
Q 193.15 223 192.15 223.1 192.3 226.45 193.15 229.5
L 192.85 230
Q 192.45 230.55 191.95 230.55 191.25 230.55 190.9 230.45
L 190.4 231.95
Q 190.85 232.25 191.7 232.25 192.65 232.25 193.3 231.65 194.15 231.05 194.95 229.4
L 198.15 223.1
Q 197.2 223 196.5 223
M 171 228.8
L 171.1 228.15 169.6 228.15 169.45 228.5
Q 169.35 229.2 168.95 229.75 168.6 230.35 167.65 231.25
L 169.1 231.65
Q 170.75 230.2 171 228.8
M 178.85 222.9
Q 178.1 222.9 177.4 223.6
L 177.3 223.6 177.4 223
Q 176.7 223 175.7 223.1
L 174.15 232.1 175.85 232.1 176.3 229.5
Q 176.75 229.6 177.4 229.6 180.35 229.6 180.75 226.3 180.85 225.9 180.85 225.4 180.85 222.9 178.85 222.9
M 178.15 224.35
Q 179.05 224.35 179.05 225.45
L 179 226.3
Q 178.65 228.2 177.4 228.2 176.8 228.2 176.5 228
L 177.15 224.65
Q 177.5 224.35 178.15 224.35
M 162.75 222.3
Q 163.8 222.3 163.8 221.15 163.8 220.4 163.05 220.4 162.55 220.4 162.25 220.75 161.9 221.05 161.9 221.5 161.9 222.3 162.75 222.3
M 167.45 221.45
Q 166.45 221.5 165.7 221.7
L 165.5 223.05 164.75 223.05 164.5 224.45 165.15 224.45 164.7 227.3 164.65 227.95
Q 164.65 229.6 166.55 229.6 167.45 229.6 168 229.4
L 168.05 227.9
Q 167.6 228.1 167.05 228.1 166.4 228.1 166.4 227.6
L 166.4 227.4 166.85 224.45 168.5 224.45
Q 168.6 224.15 168.85 223.05
L 167.15 223.05 167.45 221.45
M 184.85 220.25
L 183.2 220.45 181.6 229.5 183.3 229.5 184.85 220.25
M 225.7 229.5
L 227.4 229.5 228.55 223.05 226.85 223.05 225.7 229.5
M 233.65 224.9
L 233.65 225.15 232.9 229.5 234.55 229.5 235.4 224.4
Q 235.4 222.9 233.75 222.9 232.7 222.9 231.95 223.65
L 231.9 223.65 232 223
Q 231.25 223 230.25 223.1
L 229.2 229.5 230.9 229.5 231.7 224.75
Q 232.3 224.35 232.85 224.35 233.65 224.35 233.65 224.9
M 241.45 223.05
L 239.75 223.05 238.65 229.5 240.35 229.5 241.45 223.05
M 210.15 229.5
L 211.85 229.5 213 223.05 211.3 223.05 210.15 229.5
M 209.9 223.1
Q 209 223 208.3 223
L 206.85 227.5 206.75 227.5 206.35 223.05 204.7 223.05 202.65 227.5 202.6 227.5 202.65 223
Q 202.2 223 201.1 223.1
L 201.1 225.1
Q 201.1 227.75 201.3 229.5
L 202.95 229.5 204.75 225.85
Q 204.85 225.75 205.05 224.95
L 205.15 224.95 205.65 229.5 207.4 229.5
Q 208.85 226.4 209.9 223.1
M 216.95 221.45
Q 215.95 221.5 215.2 221.7
L 215 223.05 214.25 223.05 214 224.45 214.75 224.45 214.15 227.95
Q 214.15 229.6 216.1 229.6 216.95 229.6 217.5 229.4
L 217.55 227.9
Q 217.1 228.1 216.6 228.1 215.9 228.1 215.9 227.6
L 215.9 227.4 216.4 224.45 218 224.45
Q 218.25 223.8 218.35 223.05
L 216.65 223.05 216.95 221.45
M 221.85 220.25
Q 220.85 220.25 220.2 220.45
L 218.55 229.5 220.25 229.5 221.15 224.75
Q 221.6 224.35 222.25 224.35 223 224.35 223 224.95
L 223 225.15 222.25 229.5 223.9 229.5 224.75 224.9 224.8 224.4
Q 224.8 222.9 223.15 222.9 222.1 222.9 221.4 223.65
L 221.3 223.65 221.85 220.25
M 211.4 221.5
Q 211.4 222.3 212.25 222.3 213.4 222.3 213.4 221.15 213.4 220.4 212.55 220.4 212.05 220.4 211.75 220.75 211.4 221.05 211.4 221.5
M 241.85 221.15
Q 241.85 220.4 241.1 220.4 240.6 220.4 240.3 220.75 240 221.05 240 221.5 240 222.3 240.75 222.3 241.85 222.3 241.85 221.15
M 226.95 221.5
Q 226.95 222.3 227.8 222.3 228.9 222.3 228.9 221.15 228.9 220.4 228.15 220.4 227.6 220.4 227.25 220.75 226.95 221.05 226.95 221.5
M 249.1 228.5
Q 249.1 227.8 248.4 227.8 247.2 227.8 247.2 228.85 247.2 229.6 248.05 229.6 249.1 229.6 249.1 228.5
M 245.45 221.45
Q 244.45 221.5 243.75 221.7
L 243.5 223.05 242.75 223.05 242.5 224.45 243.25 224.45 242.7 227.3 242.7 227.95
Q 242.7 229.6 244.6 229.6 245.45 229.6 246.05 229.4
L 246.1 227.9
Q 245.65 228.1 245.05 228.1 244.45 228.1 244.45 227.6
L 244.45 227.4 244.9 224.45 246.5 224.45
Q 246.65 224.15 246.85 223.05
L 245.2 223.05 245.45 221.45
M 113.25 223.1
L 111.65 223 110.35 226.7 110.2 227.5 110.1 227.5 109.6 223.05 108 223.05 106.25 226.75 106 227.5 105.9 227.5 106 223
Q 105.4 223 104.45 223.1
L 104.35 225.1
Q 104.35 227.35 104.65 229.5
L 106.3 229.5 108.1 225.85
Q 108.25 225.45 108.35 224.95
L 108.45 224.95 109 229.5 110.65 229.5
Q 112.25 226.1 113.25 223.1
M 118.4 227.6
L 117.95 223
Q 117.35 223 116.35 223.1 116.5 226.45 117.35 229.5
L 117.05 230
Q 116.65 230.55 116.15 230.55 115.45 230.55 115.1 230.45 114.8 231.1 114.6 231.95 115.05 232.25 115.85 232.25 116.8 232.25 117.5 231.65 118.3 231.05 119.15 229.4
L 122.35 223.1 120.65 223 118.5 227.6 118.4 227.6
M 94.05 224.9
L 94.05 225.15 93.3 229.5 95 229.5 95.8 224.4
Q 95.8 222.9 94.15 222.9 93.1 222.9 92.35 223.65
L 92.3 223.65 92.4 223
Q 91.7 223 90.7 223.1
L 89.6 229.5 91.3 229.5 92.1 224.75
Q 92.7 224.35 93.3 224.35 94.05 224.35 94.05 224.9
M 100.25 222.9
Q 97.4 222.9 96.9 226.1
L 96.8 227.05
Q 96.8 229.6 99.5 229.6 102.4 229.6 102.8 226.45
L 102.9 225.45
Q 102.9 224.2 102.1 223.55 101.45 222.9 100.25 222.9
M 98.65 227.1
L 98.7 226.25
Q 99.05 224.3 100.1 224.3 101.1 224.3 101.1 225.45
L 101.05 226.25
Q 100.7 228.2 99.6 228.2 98.65 228.2 98.65 227.1
M 89.95 221.2
L 87.95 221.1 86.75 222.25
Q 85.6 223.55 84.7 224.8
L 84.6 224.8 85.25 221.1 83.45 221.1 81.95 229.5 83.8 229.5 84.25 227 85.25 225.9 86.75 229.55 88.6 229.45
Q 87.65 226.85 86.65 224.6
L 89.95 221.2
M 148.4 240.4
Q 148.2 240.05 148.2 239.65
L 153.05 239.65 153.3 237.9
Q 153.3 236.65 152.75 236 152 235.2 150.35 235.2 148.75 235.2 147.7 236.15 146.65 237.05 146.3 238.8 146.05 240.55 146.9 241.5 147.65 242.3 149.1 242.3
L 152.05 242.3 152.3 240.65 149.35 240.65
Q 148.7 240.65 148.4 240.4
M 151.2 237.1
Q 151.4 237.45 151.4 237.95
L 148.55 237.95
Q 149 236.85 150.25 236.85 150.95 236.85 151.2 237.1
M 146.8 229.5
L 148.45 229.5 149.65 223.05 148 223.05 146.8 229.5
M 161.75 223.05
L 160.6 229.5 162.3 229.5 163.45 223.05 161.75 223.05
M 157.25 224.35
Q 158 224.35 158 224.95
L 158 225.15 157.2 229.5 158.85 229.5 159.75 224.4
Q 159.75 222.9 158.1 222.9 157.05 222.9 156.15 223.8 156 222.9 154.85 222.9 153.8 222.9 153.1 223.65
L 153.05 223.65 153.1 223
Q 152.4 223 151.4 223.1
L 150.3 229.5 152 229.5 152.85 224.75
Q 153.35 224.35 153.9 224.35 154.55 224.35 154.55 224.9
L 153.7 229.5 155.4 229.5 156.3 224.75
Q 156.75 224.35 157.25 224.35
M 138.85 238.3
Q 139.15 236.9 138.45 236 137.7 235.2 136.3 235.2 134.95 235.2 133.95 236.05 132.95 236.95 132.7 238.3
L 132.1 242.3 134.05 242.3 134.65 238.3
Q 134.75 237.8 135.15 237.45 135.5 237.1 136 237.1 137.1 237.1 136.9 238.3
L 136.3 242.3 138.25 242.3 138.85 238.3
M 140.8 235.75
Q 140 236.35 139.85 237.35 139.75 238.35 140.25 238.95 140.8 239.65 142 239.65
L 143.2 239.65
Q 143.5 239.65 143.6 239.8 143.7 239.95 143.65 240.15
L 143.65 240.25
Q 143.55 240.65 143 240.65
L 139.5 240.65 139.25 242.35 142.75 242.35
Q 145.15 242.35 145.55 240.15 145.65 239 145.15 238.55 144.6 237.85 143.35 237.85
L 142.1 237.85
Q 141.9 237.85 141.8 237.7 141.65 237.6 141.7 237.35
L 141.7 237.3
Q 141.9 236.85 142.35 236.85
L 145.65 236.85 145.9 235.2 142.8 235.2
Q 141.6 235.2 140.8 235.75
M 124.2 239
Q 124.2 238.3 123.75 237.65 123 236.8 121.45 236.8
L 119.95 236.8
Q 119.25 236.8 119 236.6 118.85 236.4 118.85 236 118.85 235.2 120.3 235.2
L 124.4 235.2 124.65 233.25 120.35 233.25
Q 118.85 233.25 117.95 233.95 117.05 234.7 116.8 235.95
L 116.75 236.55
Q 116.75 237.45 117.25 237.95 117.95 238.75 119.45 238.75
L 121 238.75
Q 121.7 238.75 121.9 239 122.05 239.15 122.05 239.55
L 122.05 239.75
Q 121.95 240.65 120.65 240.65
L 116.6 240.65 116.3 242.3 116.6 242.3 116.4 242.35 120.75 242.35
Q 123.6 242.35 124.05 239.85
L 124.2 239
M 131.3 236
Q 130.6 235.2 129 235.2 127.4 235.2 126.3 236.15 125.25 237.05 125 238.8 124.7 240.5 125.5 241.5 126.25 242.3 127.75 242.3
L 130.7 242.3 130.9 240.65 128 240.65
Q 127.35 240.65 127.05 240.4 126.9 240.2 126.8 239.65
L 131.75 239.65 131.9 237.9
Q 131.9 236.65 131.3 236
M 130.05 237.95
L 127.1 237.95
Q 127.6 236.85 128.85 236.85 129.5 236.85 129.8 237.1 130.05 237.45 130.05 237.95
M 128.3 226.45
L 128.35 225.45
Q 128.35 222.9 125.7 222.9 122.9 222.9 122.35 226.1
L 122.3 227.05
Q 122.3 229.6 124.95 229.6 127.75 229.6 128.3 226.45
M 126.5 226.25
Q 126.1 228.2 125.05 228.2 124.05 228.2 124.05 227.1 124.05 226.55 124.15 226.25 124.5 224.3 125.6 224.3 126.6 224.3 126.6 225.45
L 126.5 226.25
M 133.05 227.95
Q 132.45 228.2 132 228.2 131.1 228.2 131.1 227.55
L 131.1 227.4 131.9 223
Q 131.15 223 130.15 223.1
L 129.35 228.1
Q 129.35 228.85 129.85 229.25 130.3 229.6 131.05 229.6 132.1 229.6 132.7 228.95
L 132.85 228.95 132.7 229.5 134.4 229.5 135.55 223
Q 134.95 223 133.85 223.1
L 133.05 227.95
M 139.9 224.65
L 140.55 224.75
Q 140.9 223.75 141 222.95
L 140.55 222.9
Q 139.75 222.9 138.95 223.8
L 138.85 223.8 139 223
Q 138.35 223 137.35 223.1
L 136.2 229.5 137.85 229.5 138.7 224.95
Q 139.25 224.65 139.9 224.65
M 148.1 221.5
Q 148.1 222.3 148.95 222.3 150.05 222.3 150.05 221.15 150.05 220.4 149.25 220.4 148.75 220.4 148.4 220.75 148.1 221.05 148.1 221.5
M 146.65 220.25
L 144.95 220.45 143.3 229.5 144.95 229.5 146.65 220.25 Z"/>

<path fill="#91C84B" stroke="none" d="
M 111.2 240.4
Q 110.95 240.15 110.95 239.65
L 115.8 239.65 116 237.9
Q 116 236.7 115.45 236 114.7 235.2 113.1 235.2 111.5 235.2 110.4 236.15 109.35 237.05 109.1 238.8 108.85 240.55 109.6 241.5 110.4 242.3 111.9 242.3
L 114.75 242.3 115.05 240.65 112.1 240.65
Q 111.45 240.65 111.2 240.4
M 113 236.85
Q 113.6 236.85 113.95 237.1 114.15 237.45 114.15 237.95
L 111.25 237.95
Q 111.65 236.85 113 236.85
M 95.15 237
Q 95.2 237.2 95.05 237.85
L 92.9 237.85
Q 90.3 237.85 89.95 240.05 89.55 242.3 92.15 242.3
L 96.25 242.3 96.9 238.3
Q 97.4 235.2 94.7 235.2
L 91.45 235.2 91.2 236.8 94.7 236.8
Q 95.1 236.8 95.15 237
M 91.7 240
Q 91.85 239.4 92.7 239.4
L 94.75 239.4 94.6 240.65 92.5 240.65
Q 91.65 240.65 91.7 240
M 99.95 238.25
Q 100.05 237.75 100.45 237.45 100.75 237.1 101.3 237.1 102.45 237.1 102.15 238.25
L 101.55 242.3 103.5 242.3 104.15 238.25
Q 104.25 237.75 104.65 237.45 105 237.1 105.5 237.1 106.55 237.1 106.4 238.25
L 105.75 242.3 107.75 242.3 108.35 238.3
Q 108.55 236.85 107.9 236 107.15 235.2 105.8 235.2 104.55 235.2 103.55 236.05 102.85 235.2 101.6 235.2 100.15 235.2 99.2 236 98.25 236.9 98 238.3
L 97.35 242.3 99.3 242.3 99.95 238.25
M 90.4 233.25
L 86.7 233.3
Q 84.6 233.3 83.1 234.5 81.7 235.7 81.35 237.8 81 239.9 82.05 241.1 83.1 242.3 85.25 242.3
L 89 242.3 89.9 236.8 85.8 236.8 85.55 238.75 87.5 238.75 87.25 240.4 85.25 240.4
Q 84.1 240.4 83.6 239.6 83.2 238.9 83.3 238
L 83.45 237.6
Q 83.6 236.45 84.5 235.75 85.25 235.2 86.05 235.2
L 90.1 235.2 90.4 233.25 Z"/>
</g>

<g id="Layer1_1_FILL">
<path fill="#505F68" stroke="none" d="
M 277.8 234
L 277.95 234
Q 277.45 236.3 276.55 237.2 275.8 237.9 274.4 237.9 272.95 237.9 271.8 237.65 271.25 238.95 271.25 240.65 272.55 241.05 274.2 241.05 277.2 241.05 278.95 239.05 280.95 236.85 281.65 231.95 281.85 230.05 281.85 229.4 281.85 224.3 277.3 224.3 274.8 224.3 273.25 226.15 271.75 228 271.75 231.1 271.75 233.05 272.75 234.15 273.7 235.1 275.2 235.1 276.75 235.1 277.8 234
M 276.7 232.45
Q 274.95 232.45 274.95 230.65 274.95 227.1 277.2 227.1 278.75 227.1 278.75 229.05 278.75 232.45 276.7 232.45
M 260.5 234.55
L 259.95 237.7 269.45 237.7
Q 270.05 236.15 270.25 234.55
L 267.5 234.55 269.25 224.55 266.25 224.55 262.2 225.35
Q 262 226.3 262 227
L 262.1 228.1 265.55 227.7 264.35 234.55 260.5 234.55
M 289.3 232.25
L 293.1 232.25 293.5 229.95 289.7 229.95 290.45 225.65 288.15 225.65 287.4 229.95 283.55 229.95 283.2 232.25 286.95 232.25 286.2 236.55 288.55 236.55 289.3 232.25 Z"/>
</g>

<g id="Layer1_2_FILL">
<path fill="#F47C36" stroke="none" d="
M 39.9 231.4
Q 39.1 230.55 37.95 230.55 36.8 230.55 36 231.4 35.2 232.2 35.2 233.35 35.2 234.5 36 235.3 36.8 236.1 37.95 236.1 39.1 236.1 39.9 235.3 40.75 234.5 40.75 233.35 40.75 232.2 39.9 231.4 Z"/>

<path fill="#505F68" stroke="none" d="
M 15.95 218
L 11.5 218 11.5 233.35
Q 11.5 236.85 14 239.35 16.5 241.85 20.05 241.85 23.55 241.85 26.05 239.35 28.55 236.85 28.55 233.35 28.55 229.8 26.05 227.3 23.55 224.8 20.05 224.8 17.85 224.8 15.95 225.85
L 15.95 218
M 15.5 233.35
Q 15.5 231.5 16.85 230.15 18.15 228.85 20.05 228.85 21.9 228.85 23.2 230.15 24.55 231.5 24.55 233.35 24.55 235.2 23.2 236.55 21.9 237.85 20.05 237.85 18.15 237.85 16.85 236.55 15.5 235.2 15.5 233.35
M 42 231.3
L 45.45 229.25
Q 44.35 227.3 42.4 226.05 40.35 224.8 37.95 224.8 34.45 224.8 31.95 227.3 29.45 229.8 29.45 233.35 29.45 236.85 31.95 239.35 34.45 241.85 37.95 241.85 40.4 241.85 42.5 240.55 44.5 239.3 45.6 237.2
L 42.1 235.15
Q 41.6 236.35 40.45 237.1 39.35 237.85 37.95 237.85 36.1 237.85 34.8 236.55 33.45 235.2 33.45 233.35 33.45 231.5 34.8 230.15 36.1 228.85 37.95 228.85 39.25 228.85 40.35 229.55 41.45 230.2 42 231.3
M 54.3 227.3
Q 51.8 229.8 51.8 233.35 51.8 236.9 54.3 239.35 56.8 241.85 60.35 241.85 62.8 241.85 64.85 240.55 66.85 239.3 67.95 237.2
L 64.45 235.15
Q 63.95 236.35 62.85 237.1 61.7 237.85 60.35 237.85 58.5 237.85 57.15 236.55 55.85 235.25 55.85 233.35 55.85 231.5 57.15 230.15 58.5 228.85 60.35 228.85 63.05 228.85 64.35 231.3
L 67.85 229.25
Q 66.7 227.3 64.8 226.05 62.75 224.8 60.35 224.8 56.8 224.8 54.3 227.3
M 51 218
L 46.55 218 46.55 237.4
Q 46.55 239.25 47.85 240.55 49.15 241.85 51 241.85
L 51 218 Z"/>

<path fill="#C62E40" stroke="none" d="
M 20.1 230.55
Q 18.95 230.55 18.15 231.4 17.3 232.2 17.3 233.35 17.3 234.5 18.15 235.3 18.95 236.1 20.1 236.1 21.25 236.1 22.05 235.3 22.85 234.5 22.85 233.35 22.85 232.2 22.05 231.4 21.25 230.55 20.1 230.55 Z"/>

<path fill="#91C84B" stroke="none" d="
M 58.4 231.4
Q 57.55 232.2 57.55 233.35 57.55 234.5 58.4 235.3 59.15 236.1 60.35 236.1 61.5 236.1 62.3 235.3 63.1 234.5 63.1 233.35 63.1 232.2 62.3 231.4 61.5 230.55 60.35 230.55 59.15 230.55 58.4 231.4 Z"/>
</g>

<g id="Layer1_3_FILL">
<path fill="#FFFFFF" stroke="none" d="
M 152.4 176.95
L 152.4 174.7 143.5 174.7 143.5 176.95 146.8 176.95 146.8 186.2 149.05 186.2 149.05 176.95 152.4 176.95
M 157.05 174.7
L 154.8 174.7 154.8 186.2 157.05 186.2 157.05 174.7
M 132.95 178.25
Q 132.7 178.7 132.5 179.1 132.3 179.5 132.25 179.7 132.1 179.5 131.9 179.1 131.65 178.7 131.45 178.25 131.15 177.75 130.95 177.45
L 129.3 174.7 126.65 174.7 131.05 181.65 131.05 186.2 133.35 186.2 133.35 181.65 137.65 174.7 135.1 174.7 133.45 177.45
Q 133.25 177.85 132.95 178.25
M 115.65 181.15
Q 115.65 182.8 116.25 184 116.85 185.1 117.85 185.8 118.9 186.4 120.3 186.4 122.5 186.4 123.7 185 124.95 183.65 124.95 181.15
L 124.95 174.7 122.6 174.7 122.6 181.15
Q 122.6 182.55 122 183.35 121.35 184.15 120.3 184.15 119.15 184.15 118.55 183.35 118 182.55 118 181.15
L 118 174.7 115.65 174.7 115.65 181.15
M 112.65 179.1
Q 113 178.5 113 177.75 113 176.25 112.05 175.5 111.1 174.7 109.4 174.7
L 104.1 174.7 104.1 186.2 109.35 186.2
Q 110.55 186.2 111.5 185.8 112.4 185.3 112.95 184.55 113.4 183.65 113.4 182.45 113.4 181.55 112.95 180.95 112.55 180.3 111.8 179.95 112.4 179.6 112.65 179.1
M 110.7 177.9
Q 110.7 178.4 110.4 178.7 110.1 179 109.4 179
L 106.35 179 106.35 176.85 109.3 176.85
Q 110 176.85 110.35 177.1 110.7 177.35 110.7 177.9
M 111.1 182.55
Q 111.1 183.2 110.7 183.6 110.3 184 109.4 184
L 106.35 184 106.35 181 109.4 181
Q 110.3 181 110.7 181.4 111.1 181.8 111.1 182.55
M 190.85 176.95
L 190.85 174.7 182.9 174.7 182.9 186.2 191.1 186.2 191.1 183.95 185.2 183.95 185.2 181.2 188.45 181.2 188.45 178.95 185.2 178.95 185.2 176.95 190.85 176.95
M 201.7 176.95
L 201.7 174.7 192.85 174.7 192.85 176.95 196.15 176.95 196.15 186.2 198.4 186.2 198.4 176.95 201.7 176.95
M 168.85 177.1
Q 168.3 175.95 167.3 175.25 166.25 174.6 164.65 174.5 163.15 174.6 162 175.3 160.9 176.05 160.2 177.35 159.55 178.7 159.55 180.5 159.55 182.25 160.2 183.6 160.8 184.9 161.95 185.65 163.05 186.4 164.6 186.4 166.1 186.4 167.2 185.65 168.25 185 168.85 183.8
L 166.9 182.6
Q 166.45 183.4 165.9 183.75 165.4 184.15 164.65 184.05 163.8 184.05 163.15 183.6 162.55 183.15 162.2 182.35 161.95 181.5 161.95 180.5 161.95 179.35 162.2 178.55 162.55 177.75 163.15 177.3 163.75 176.85 164.6 176.85 165.4 176.85 165.9 177.15 166.4 177.45 166.7 178.05
L 168.85 177.1
M 180.25 174.7
L 177.45 174.7 174.25 178.6
Q 174 178.95 173.75 179.3 173.5 179.6 173.35 179.8 173.35 179.6 173.4 179.3 173.4 178.9 173.4 178.55 173.4 178.25 173.4 177.95
L 173.4 174.7 171.1 174.7 171.1 186.2 173.4 186.2 173.4 182.8 175.2 180.7 178.3 186.2 181.1 186.2 176.85 178.7 180.25 174.7 Z"/>
</g>

<g id="Layer1_4_FILL">
<path fill="#FFFFFF" stroke="none" d="
M 113.1 128.3
Q 112.5 128.05 111.65 128.05 110.8 128.05 110.1 128.4 109.45 128.7 109 129.15
L 109 128.3 105.65 128.3 105.65 141.2 109 141.2 109 134.25
Q 109 133.15 109.25 132.55 109.55 131.9 110.05 131.7 110.5 131.4 111.2 131.4 111.8 131.4 112.25 131.7 112.75 131.9 113.15 132.3
L 114.05 129
Q 113.7 128.6 113.1 128.3
M 91.75 128.3
L 91.75 135.6
Q 91.75 138.35 92.85 139.9 94.05 141.5 96.5 141.5 97.5 141.5 98.3 141.15 99.1 140.8 99.55 140.35
L 99.55 141.2 102.9 141.2 102.9 128.3 99.55 128.3 99.55 135.4
Q 99.55 137.05 98.95 137.7 98.35 138.3 97.3 138.3 96.25 138.3 95.7 137.65 95.1 137 95.1 135.3
L 95.1 128.3 91.75 128.3
M 158 128.3
L 155.9 131.05
Q 155.55 131.5 155.15 132 154.75 132.5 154.5 132.95 154.55 132.6 154.55 132.1 154.55 131.6 154.55 131.1 154.55 130.55 154.55 130.15
L 154.55 123.35 151.2 125 151.2 141.2 154.55 141.2 154.55 137.3 156.2 135.25 158.65 141.2 162.35 141.2 158.65 132.4 162 128.3 158 128.3
M 123.2 125
L 123.2 128.3 121.05 128.3 121.05 131.5 123.2 131.5 123.2 137.65
Q 123.2 138.75 123.6 139.6 124.1 140.5 124.8 141 125.6 141.5 126.65 141.5 127.45 141.5 128.1 141.3 128.85 141 129.3 140.7
L 129.75 137.25
Q 129.15 137.75 128.7 138.05 128.3 138.25 127.85 138.25 127.25 138.25 126.9 137.95 126.6 137.55 126.6 136.7
L 126.6 131.5 129.7 131.5 129.7 128.3 126.6 128.3 126.6 123.35 123.2 125
M 138.75 131.3
Q 137.95 132.8 137.95 134.8 137.95 136.8 138.75 138.3 139.55 139.75 140.95 140.6 142.25 141.5 144 141.5 145.9 141.5 147.1 140.7 148.35 139.9 149.3 138.65
L 147.1 136.6
Q 146.45 137.35 145.75 137.75 145.05 138.25 144.05 138.25 142.85 138.25 142.15 137.3 141.4 136.4 141.4 134.8 141.4 133.2 142.15 132.3 142.85 131.35 144.05 131.3 145.1 131.35 145.75 131.8 146.45 132.35 147.05 133.15
L 149.3 130.9
Q 148.5 129.65 147.25 128.85 145.95 128.05 144.1 128.05 142.35 128.05 140.95 128.9 139.55 129.75 138.75 131.3
M 135.85 128.3
L 132.5 128.3 132.5 141.2 135.85 141.2 135.85 128.3
M 132.8 123.95
Q 132.2 124.55 132.2 125.35 132.2 126.15 132.8 126.75 133.35 127.25 134.15 127.25 134.95 127.25 135.5 126.75 136.05 126.15 136.1 125.35 136.05 124.55 135.5 123.95 134.95 123.4 134.15 123.4 133.35 123.4 132.8 123.95
M 80.95 128.9
Q 79.7 129.75 78.9 131.3 78.2 132.8 78.2 134.8 78.2 136.8 78.9 138.3 79.7 139.75 80.95 140.6 82.3 141.5 84 141.5 85.65 141.5 87 140.6 88.3 139.75 89.1 138.3 89.8 136.8 89.8 134.8 89.8 132.8 89.1 131.3 88.3 129.75 87 128.9 85.65 128.05 84 128.05 82.3 128.05 80.95 128.9
M 81.6 134.8
Q 81.6 133.8 81.9 133 82.15 132.2 82.7 131.75 83.2 131.35 84 131.3 84.8 131.35 85.3 131.75 85.85 132.2 86.1 133 86.4 133.8 86.4 134.8 86.4 135.7 86.1 136.45 85.85 137.25 85.3 137.7 84.8 138.25 84 138.25 82.75 138.25 82.2 137.25 81.6 136.3 81.6 134.8
M 71.85 134.55
Q 71.55 135.3 71.3 136.05 71.1 136.85 70.95 137.35 70.9 136.85 70.65 136.05 70.45 135.3 70.2 134.55
L 68.05 128.3 64.3 128.3 69.3 141.2 67.6 145.75 70.9 145.75 77.6 128.3 73.95 128.3 71.85 134.55
M 133.15 96.35
L 129.5 96.35 127.4 102.6
Q 127.1 103.4 126.85 104.1 126.65 104.9 126.55 105.45 126.45 104.9 126.2 104.1 126 103.4 125.75 102.6
L 123.6 96.35 119.85 96.35 124.85 109.25 123.15 113.85 126.45 113.85 133.15 96.35
M 140.15 96.1
Q 138.45 96.1 137.1 96.95 135.85 97.8 135.05 99.35 134.35 100.85 134.35 102.85 134.35 104.85 135.05 106.35 135.85 107.8 137.1 108.65 138.45 109.55 140.15 109.55 141.8 109.55 143.15 108.65 144.45 107.8 145.25 106.35 145.95 104.85 145.95 102.85 145.95 100.85 145.25 99.35 144.45 97.8 143.15 96.95 141.8 96.1 140.15 96.1
M 142.55 102.85
Q 142.55 103.8 142.25 104.5 142 105.3 141.45 105.75 140.95 106.3 140.15 106.3 138.9 106.3 138.35 105.3 137.75 104.35 137.75 102.85 137.75 101.85 138.05 101.05 138.3 100.25 138.85 99.8 139.35 99.4 140.15 99.35 140.95 99.4 141.45 99.8 142 100.25 142.25 101.05 142.55 101.85 142.55 102.85
M 151.85 96.35
L 148.5 96.35 148.5 103.65
Q 148.5 106.4 149.6 107.95 150.8 109.55 153.25 109.55 154.25 109.55 155.05 109.2 155.8 108.85 156.3 108.4
L 156.3 109.25 159.65 109.25 159.65 96.35 156.3 96.35 156.3 103.45
Q 156.3 105.1 155.7 105.75 155.1 106.35 154.05 106.35 153 106.35 152.45 105.7 151.85 105.05 151.85 103.4
L 151.85 96.35
M 108.25 96.95
Q 106.95 96.1 105.3 96.1 103.6 96.1 102.25 96.95 101 97.8 100.2 99.35 99.5 100.85 99.5 102.85 99.5 104.85 100.2 106.35 101 107.8 102.25 108.65 103.6 109.55 105.3 109.55 106.95 109.55 108.25 108.65 109.6 107.8 110.4 106.35 111.1 104.85 111.1 102.85 111.1 100.85 110.4 99.35 109.6 97.8 108.25 96.95
M 106.6 99.8
Q 107.15 100.25 107.4 101.05 107.7 101.85 107.7 102.85 107.7 103.8 107.4 104.5 107.15 105.3 106.6 105.75 106.1 106.3 105.3 106.3 104.05 106.3 103.5 105.3 102.9 104.35 102.9 102.85 102.9 101.85 103.2 101.05 103.45 100.25 103.95 99.8 104.5 99.4 105.3 99.35 106.1 99.4 106.6 99.8
M 96.15 95.65
Q 95.05 93.8 93.15 92.95 91.2 92.05 88.75 92.05
L 83.35 92.05 83.35 109.25 88.5 109.25
Q 90.15 109.25 91.75 108.8 93.35 108.25 94.5 107.2 95.75 106.15 96.5 104.55 97.25 102.9 97.3 100.65 97.25 97.55 96.15 95.65
M 86.8 95.45
L 88.65 95.45
Q 91.35 95.45 92.55 96.75 93.8 98 93.7 100.65 93.7 102.25 93.2 103.45 92.6 104.65 91.45 105.25 90.3 105.9 88.5 105.9
L 86.8 105.9 86.8 95.45
M 197.45 134.55
L 195.3 128.3 191.55 128.3 196.55 141.2 194.85 145.75 198.15 145.75 204.85 128.3 201.2 128.3 199.1 134.55
Q 198.8 135.3 198.55 136.05 198.35 136.85 198.2 137.35 198.15 136.85 197.9 136.05 197.7 135.3 197.45 134.55
M 176.9 128.3
L 174.75 128.3 174.75 131.5 176.9 131.5 176.9 137.65
Q 176.9 138.75 177.3 139.6 177.8 140.5 178.5 141 179.3 141.5 180.35 141.5 181.15 141.5 181.8 141.3 182.55 141 183 140.7
L 183.45 137.25
Q 182.85 137.75 182.4 138.05 182 138.25 181.55 138.25 180.95 138.25 180.65 137.95 180.3 137.55 180.3 136.7
L 180.3 131.5 183.4 131.5 183.4 128.3 180.3 128.3 180.3 123.35 176.9 125 176.9 128.3
M 173.95 135.45
Q 173.95 135.15 173.95 134.8 173.95 132.95 173.3 131.4 172.6 129.9 171.45 129 170.25 128.05 168.5 128.05 166.85 128.05 165.55 128.9 164.3 129.75 163.5 131.3 162.75 132.8 162.75 134.8 162.75 136.85 163.5 138.35 164.2 139.8 165.6 140.7 166.95 141.5 168.85 141.5 169.7 141.5 170.55 141.2 171.45 141 172.15 140.55 172.9 140.1 173.4 139.4
L 171.05 137.35
Q 170.65 137.85 170.1 138.05 169.5 138.3 168.85 138.3 168.2 138.3 167.6 138.05 167.05 137.85 166.65 137.3 166.25 136.7 166.15 135.85
L 173.9 135.85
Q 173.9 135.65 173.95 135.45
M 166.2 133.35
Q 166.35 132.35 166.85 131.7 167.4 131.05 168.3 131.05 169.1 131.05 169.6 131.35 170.1 131.7 170.4 132.2 170.55 132.75 170.65 133.35
L 166.2 133.35
M 231.55 137.95
Q 230.9 138.5 230.9 139.4 230.9 140.3 231.55 140.9 232.15 141.5 233 141.5 233.85 141.5 234.45 140.9 235.05 140.3 235.05 139.4 235.05 138.5 234.45 137.95 233.85 137.3 233 137.3 232.15 137.3 231.55 137.95
M 239.8 128.8
Q 239.75 127.05 238.95 125.95 238.15 124.8 236.8 124.3 235.3 123.75 233.4 123.75 232 123.75 230.8 124.15 229.65 124.55 228.65 125.15 227.65 125.8 226.9 126.6
L 229.1 129.15
Q 229.95 128.3 231 127.7 232 127.1 233.4 127.1 235 127.1 235.65 127.6 236.4 128.05 236.4 128.9 236.4 129.55 236 129.95 235.65 130.35 234.75 130.75 233.4 131.35 232.6 132.15 231.9 132.9 231.55 133.75 231.3 134.65 231.3 135.8
L 234.65 135.8
Q 234.65 135.15 234.9 134.6 235.1 134.15 235.7 133.75 236.3 133.25 237.3 132.8 237.9 132.55 238.5 132 239.05 131.5 239.4 130.7 239.75 129.9 239.8 128.8
M 216.35 134.8
Q 216.35 132.95 215.7 131.4 215 129.9 213.85 129 212.65 128.05 210.9 128.05 209.25 128.05 207.95 128.9 206.7 129.75 205.9 131.3 205.15 132.8 205.15 134.8 205.15 136.85 205.9 138.35 206.6 139.8 208 140.7 209.35 141.5 211.25 141.5 212.1 141.5 212.95 141.2 213.85 141 214.55 140.55 215.3 140.1 215.8 139.4
L 213.45 137.35
Q 213.05 137.85 212.5 138.05 211.9 138.3 211.25 138.3 210.6 138.3 210 138.05 209.45 137.85 209.05 137.3 208.65 136.7 208.55 135.85
L 216.25 135.85
Q 216.25 135.65 216.35 135.45 216.35 135.15 216.35 134.8
M 212.75 132.2
Q 212.95 132.75 213.05 133.35
L 208.6 133.35
Q 208.75 132.35 209.25 131.7 209.8 131.05 210.7 131.05 211.5 131.05 212 131.35 212.5 131.7 212.75 132.2
M 219.3 125
L 219.3 128.3 217.15 128.3 217.15 131.5 219.3 131.5 219.3 137.65
Q 219.3 138.75 219.7 139.6 220.2 140.5 220.9 141 221.7 141.5 222.75 141.5 223.55 141.5 224.2 141.3 224.95 141 225.4 140.7
L 225.85 137.25
Q 225.25 137.75 224.8 138.05 224.4 138.25 223.95 138.25 223.35 138.25 223 137.95 222.7 137.55 222.7 136.7
L 222.7 131.5 225.8 131.5 225.8 128.3 222.7 128.3 222.7 123.35 219.3 125
M 216.2 96.1
Q 214.55 96.1 213.25 96.95 212 97.8 211.2 99.35 210.45 100.85 210.45 102.85 210.45 104.9 211.2 106.4 211.9 107.9 213.3 108.75 214.6 109.55 216.55 109.55 217.4 109.55 218.25 109.25 219.1 109.05 219.85 108.6 220.55 108.15 221.1 107.5
L 218.7 105.45
Q 218.3 105.9 217.8 106.1 217.2 106.35 216.55 106.35 215.9 106.35 215.3 106.1 214.75 105.9 214.35 105.35 213.95 104.75 213.85 103.9
L 221.55 103.9
Q 221.55 103.7 221.65 103.5 221.65 103.2 221.65 102.85 221.65 101 220.95 99.5 220.3 97.95 219.1 97.05 217.95 96.1 216.2 96.1
M 218.05 100.25
Q 218.25 100.8 218.3 101.4
L 213.9 101.4
Q 214.05 100.4 214.55 99.75 215.1 99.1 216 99.1 216.8 99.1 217.25 99.4 217.8 99.75 218.05 100.25
M 200.25 96.35
L 196.5 96.35 201.15 109.25 204.65 109.25 209.25 96.35 205.65 96.35 203.75 102.3
Q 203.5 103.1 203.3 103.9 203.05 104.65 203 105.15 202.85 104.7 202.6 103.9 202.4 103.1 202.1 102.3
L 200.25 96.35
M 186.3 96.7
Q 185.6 96.95 184.85 97.45
L 186.2 99.75
Q 186.8 99.5 187.25 99.3 187.75 99.1 188.35 99 188.95 98.9 189.7 98.9 190.6 98.95 191.1 99.4 191.55 99.85 191.55 100.55
L 191.55 101.2
Q 191.15 101 190.55 100.8 189.95 100.65 189.1 100.65 187.55 100.65 186.45 101.15 185.25 101.6 184.55 102.6 183.85 103.5 183.85 104.95 183.85 106.5 184.55 107.55 185.25 108.55 186.3 109.05 187.45 109.55 188.65 109.55 189.55 109.55 190.35 109.2 191.1 108.85 191.55 108.4
L 191.55 109.25 194.9 109.25 194.9 100.6
Q 194.9 99.15 194.25 98.15 193.6 97.15 192.45 96.65 191.25 96.1 189.7 96.1 188.7 96.1 187.85 96.25 187.05 96.45 186.3 96.7
M 190.6 103.45
Q 191.15 103.6 191.55 103.85
L 191.55 105.5
Q 191.25 105.95 190.6 106.3 190 106.7 189.2 106.7 188.1 106.6 187.65 106.15 187.25 105.65 187.25 104.95 187.25 104.15 187.7 103.7 188.25 103.3 189.2 103.3 190.1 103.3 190.6 103.45
M 173.5 97.25
L 173.5 91.4 170.1 93.05 170.1 109.25 173.5 109.25 173.5 102.2
Q 173.5 100.55 174.1 99.95 174.6 99.3 175.65 99.3 176.7 99.3 177.3 99.95 177.85 100.6 177.85 102.3
L 177.85 109.25 181.3 109.25 181.3 102
Q 181.3 99.3 180.1 97.7 178.95 96.1 176.55 96.1 175.45 96.1 174.75 96.45 173.95 96.75 173.5 97.25 Z"/>
</g>
</defs>

<g transform="matrix( 1, 0, 0, 1, 0,0) ">
<use xlink:href="#Layer1_0_FILL"/>
</g>

<g transform="matrix( 1, 0, 0, 1, 0,0) ">
<use xlink:href="#Layer1_1_FILL"/>
</g>

<g transform="matrix( 1, 0, 0, 1, 0,0) ">
<use xlink:href="#Layer1_2_FILL"/>
</g>

<g transform="matrix( 1, 0, 0, 1, 0,0) ">
<use xlink:href="#Layer1_3_FILL"/>
</g>

<g transform="matrix( 1, 0, 0, 1, 0,0) ">
<use xlink:href="#Layer1_4_FILL"/>
</g>
</svg>
